{
  "site": {
    "publicPath": "public"
  },
  "proxy": {
    "endpoint": [
      "/cgi-bin/proxy.cgi",
      "/proxy"
    ]
  },
  "geoserver": {
    "host":"geoserver.staging.adif.interactar.com:80"
  },
  "postgresql": {
    "protocol": "postgres",
    "slashes": true,
    "hostname": "localhost",
    "port": "5432",
    "auth": "USER:PASS",
    "dbname": "adif",
    "pathname": "adif"
  }
}
